\version "2.16.0"
#(ly:set-option 'warning-as-error #t)
#(ly:expect-warning (_ "cannot find line breaking that satisfies constraints"))

\header {
  texidoc = "Page breaking doesn't crash when the line-breaking
is invalid."
}

\book {
  \paper {
    system-count = #1
  }

  \repeat unfold 20 { c d e f }
}
